…
### Backup

``` r
rand_npl
#> # A tibble: 10,000 x 5
#>    publication_numb… country_code type  npl_text                         rand
#>    <chr>             <chr>        <chr> <chr>                           <dbl>
#>  1 EP-1482288-B1     EP           ""    "HILARY E SNELL ET AL: \"Fouri… 0.964
#>  2 EP-3134253-A4     EP           "XPI" "ROBERT MACCURDY ET AL: \"Hybr… 0.102
#>  3 EP-1811026-B1     EP           ""    "Technical Bulletin; pCI and p… 0.977
#>  4 EP-1901235-B1     EP           ""    "VERGEEST J ET AL: \"Free-form… 0.203
#>  5 EP-2097241-B1     EP           ""    "BAETEN F ET AL: \"Barium tita… 0.497
#>  6 EP-2280048-B1     EP           ""    "ULRICH JAHN: \"Decandisäure\"… 0.267
#>  7 EP-2304028-B1     EP           ""    "BREVNOV MAXIM G ET AL: \"Deve… 0.223
#>  8 EP-2310520-B1     EP           ""    "BING FENG ET AL: \"Purificati… 0.237
#>  9 EP-2334021-B1     EP           ""    "CARLOS MOSQUERA ET AL: \"Non-… 0.658
#> 10 EP-2737071-B1     EP           ""    "GALIBERT L ET AL: \"Baculovir… 0.961
#> # … with 9,990 more rows
…
