## Data

Patents matched to Unpaywall via DOIs

``` r
npl_df <- readr::read_csv("data/dois_to_be_checked.csv") %>%
  select(doi_cleaned, publication_number, country_code, publication_date) %>%
  mutate(doi = tolower(doi_cleaned))

oa_upy <- jsonlite::stream_in(file("data/oa_patents.json"), verbose = FALSE)
my_df <-
  inner_join(npl_df, oa_upy, by = "doi")
my_df
#> # A tibble: 62,298 x 20
#>    doi_cleaned    publication_num… country_code publication_date doi      genre 
#>    <chr>          <chr>            <chr>                   <dbl> <chr>    <chr> 
#>  1 10.1109/trans… US-10003888-B2   US                   20180619 10.1109… proce…
#>  2 10.1038/nmeth… US-10017760-B2   US                   20180710 10.1038… journ…
#>  3 10.1073/pnas.… US-10017760-B2   US                   20180710 10.1073… journ…
#>  4 10.1093/bioin… US-10017760-B2   US                   20180710 10.1093… journ…
#>  5 10.1371/journ… US-10017760-B2   US                   20180710 10.1371… journ…
#>  6 10.1038/nsmb.… US-10017760-B2   US                   20180710 10.1038… journ…
#>  7 10.1146/annur… US-10017760-B2   US                   20180710 10.1146… journ…
#>  8 10.1016/j.cho… US-10017760-B2   US                   20180710 10.1016… journ…
#>  9 10.1126/scien… US-10017760-B2   US                   20180710 10.1126… journ…
#> 10 10.1126/scien… US-10017760-B2   US                   20180710 10.1126… journ…
#> # … with 62,288 more rows, and 14 more variables: has_repository_copy <lgl>,
#> #   is_paratext <lgl>, is_oa <lgl>, journal_is_in_doaj <lgl>,
#> #   journal_is_oa <lgl>, journal_name <chr>, oa_locations <list>,
#> #   oa_status <chr>, publisher <chr>, published_date <chr>, doi_updated <chr>,
#> #   year <int>, journal_issns <chr>, journal_issn_l <chr>
```
…
