…
Fetch data

``` sql
SELECT * 
FROM `api-project-764811344545.tmp.patent_unpaywall_matched`
```

``` r
oa_patents
```

    ## # A tibble: 62,298 x 16
    ##    doi   genre has_repository_… is_paratext is_oa journal_is_in_d… journal_is_oa
    ##    <chr> <chr> <lgl>            <lgl>       <lgl> <lgl>            <lgl>        
    ##  1 10.1… proc… FALSE            FALSE       FALSE FALSE            FALSE        
    ##  2 10.1… proc… FALSE            FALSE       FALSE FALSE            FALSE        
    ##  3 10.1… proc… FALSE            FALSE       FALSE FALSE            FALSE        
    ##  4 10.1… proc… FALSE            FALSE       FALSE FALSE            FALSE        
    ##  5 10.1… proc… FALSE            FALSE       FALSE FALSE            FALSE        
    ##  6 10.1… proc… FALSE            FALSE       FALSE FALSE            FALSE        
    ##  7 10.1… proc… FALSE            FALSE       FALSE FALSE            FALSE        
    ##  8 10.1… proc… FALSE            FALSE       FALSE FALSE            FALSE        
    ##  9 10.1… proc… FALSE            FALSE       FALSE FALSE            FALSE        
    ## 10 10.1… proc… FALSE            FALSE       FALSE FALSE            FALSE        
    ## # … with 62,288 more rows, and 9 more variables: journal_issn_l <chr>,
    ## #   journal_issns <chr>, journal_name <chr>, oa_locations <list>,
    ## #   oa_status <chr>, publisher <chr>, published_date <chr>, doi_updated <dttm>,
    ## #   year <int>
…
