…
Big query

``` r
length(unique(npl_df$family_id))
#> [1] 240010
length(unique(npl_df$npl_text))
#> [1] 594094
```

``` r
# distinct dois
dois %>% distinct(doi_cleaned)
#> # A tibble: 415,148 × 1
#>    doi_cleaned                   
#>    <chr>                         
#>  1 10.1021/cm062619r             
#>  2 10.1109/CCGRID.2012.143       
#>  3 10.1109/CISIS                 
#>  4 10.1371/journal.pone.0019991  
#>  5 10.1016/j.jalz.2011.03.005    
#>  6 10.1186/alzrt62               
#>  7 10.1016/j.ultramic.2003.11.001
#>  8 10.1109/TMC.2011.216          
#>  9 10.1145/1023783.1023786       
#> 10 10.1371/journal.pone.0116871  
#> # … with 415,138 more rows
…
#### Europe PMC

``` r
epmc_df <- readr::read_csv("data/epmc_pmid_pmc.csv")
npl_pattern <- readr::read_csv("data/npl_pattern.csv")
```

big query recall

``` r
# patent families
npl_pattern %>% 
    filter(repo_pattern %in% c("pmid", "pmcid")) %>%
    distinct(family_id)
#> # A tibble: 4,112 × 1
#>    family_id
#>        <dbl>
#>  1  59057557
#>  2  38859094
#>  3  52668146
#>  4  39275445
#>  5  33479817
#>  6  59274055
#>  7  65806999
#>  8  46672972
#>  9  49945429
#> 10  60937809
#> # … with 4,102 more rows
…
bg_patent_oa <- bq_table("api-project-764811344545", "tmp", "patent_oa")
if(bq_table_exists(bg_patent_oa))
  bq_table_delete(bg_patent_oa)
bigrquery::bq_table_upload(
  bg_patent_oa,
  total_df)
```

``` r
oa_enriched <- readr::read_file("sql/enrich_oa_with_patent_md.sql")
oa_enriched_df <- DBI::dbGetQuery(con, oa_enriched)

oa_enriched_df
#> # A tibble: 740,545 × 12
#>    publication_number family_id pub_year cpc   country_code src   pub_type is_oa
#>    <chr>              <chr>        <int> <chr> <chr>        <chr> <chr>    <lgl>
#>  1 US-10865240-B2     55274842      2020 A     "SG"         Unpa… journal… TRUE 
#>  2 US-10826079-B2     64272109      2020 H     "JP"         Unpa… journal… TRUE 
#>  3 EP-3541943-A4      64362888      2020 A     "KR"         Unpa… journal… TRUE 
#>  4 US-10578566-B2     68055990      2020 G     "US"         Unpa… journal… FALSE
#>  5 EP-3703004-A3      69742796      2020 G     "JP"         Unpa… journal… TRUE 
#>  6 EP-3751788-A1      70857052      2020 G     "DE"         Unpa… proceed… FALSE
#>  7 CN-111860683-A     72946768      2020 G     ""           arXiv posted-… TRUE 
#>  8 EP-3589736-A4      63370521      2020 A     "US"         Unpa… journal… TRUE 
#>  9 EP-3725773-A1      70108097      2020 C     "JP"         Unpa… journal… FALSE
#> 10 EP-3663979-A1      68835020      2020 G     "DE"         Unpa… journal… TRUE 
#> # … with 740,535 more rows, and 4 more variables: publication_number_1 <chr>,
#> #   family_id_1 <int>, year <int>, pid <chr>
…
